%YAML 1.1
%TAG !u! tag:unity3d.com,2011:
--- !u!114 &11400000
MonoBehaviour:
  m_ObjectHideFlags: 0
  m_CorrespondingSourceObject: {fileID: 0}
  m_PrefabInstance: {fileID: 0}
  m_PrefabAsset: {fileID: 0}
  m_GameObject: {fileID: 0}
  m_Enabled: 1
  m_EditorHideFlags: 0
  m_Script: {fileID: 11500000, guid: 4798b821ab32bc148ad77d87e0d45e77, type: 3}
  m_Name: Earth Base Attack
  m_EditorClassIdentifier: 
  damageRange: {x: 3, y: 6}
  critBonusModifier: {x: 0.2, y: 0.3}
  elementType: {fileID: 11400000, guid: da88f78b66c925244b672b1c47d45ec7, type: 2}
