%YAML 1.1
%TAG !u! tag:unity3d.com,2011:
--- !u!114 &11400000
MonoBehaviour:
  m_ObjectHideFlags: 0
  m_CorrespondingSourceObject: {fileID: 0}
  m_PrefabInstance: {fileID: 0}
  m_PrefabAsset: {fileID: 0}
  m_GameObject: {fileID: 0}
  m_Enabled: 1
  m_EditorHideFlags: 0
  m_Script: {fileID: 11500000, guid: db61dd322c51a1b4e8fa97251b452b8d, type: 3}
  m_Name: FireSphere
  m_EditorClassIdentifier: 
  health: 40
  criticalChance: 0.06462258
  elementType: {fileID: 0}
